…
``` r
library('tidyverse')
library('broom')

set.seed(354654)
d = tibble(value = rnorm(100),
           category = sample(1:5, replace = TRUE, 100),
           group = sample(c('A', 'B'), replace = TRUE, 100)) %>% 
  arrange(category)

d
```

    ## # A tibble: 100 x 3
    ##     value category group
    ##     <dbl>    <int> <chr>
    ##  1  0.401        1 A    
    ##  2 -1.12         1 B    
    ##  3  1.41         1 A    
    ##  4 -0.614        1 A    
    ##  5  0.222        1 B    
    ##  6  0.479        1 A    
    ##  7  0.672        1 B    
    ##  8  1.16         1 B    
    ##  9  0.743        1 A    
    ## 10  0.215        1 A    
    ## # ... with 90 more rows
…
``` r
d = tibble(response1 = rnorm(100),
           response2 = rnorm(100),
           response3 = rnorm(100),
           response4 = rnorm(100),
           group = sample(c('A', 'B'), replace = TRUE, 100))

d[1:3,2] <- NA
d[5,2:4] <- NA

d
```

    ## # A tibble: 100 x 5
    ##    response1 response2 response3 response4 group
    ##        <dbl>     <dbl>     <dbl>     <dbl> <chr>
    ##  1  -1.31      NA         -0.574    0.0374 B    
    ##  2   0.958     NA         -0.391   -0.948  A    
    ##  3  -0.803     NA          0.444   -0.805  B    
    ##  4   0.00455   -0.0326    -0.592    2.88   A    
    ##  5  -0.373     NA         NA       NA      B    
    ##  6  -1.43      -0.0591    -0.840   -0.315  A    
    ##  7  -0.598     -0.0277    -0.403   -0.594  A    
    ##  8  -2.25       0.965     -0.404   -0.449  A    
    ##  9  -1.19      -0.125      0.903    2.06   A    
    ## 10  -0.170      0.372     -2.13    -1.72   A    
    ## # ... with 90 more rows
…
